basics/R-S-latch/simulation/qsim/part1.msim.vcd
$comment
	File created using the following command:
		vcd file part1.msim.vcd -direction
$end
$date
	Tue Aug 10 20:04:55 2021
$end
$version
	ModelSim Version 10.1d
$end
$timescale
	1ps
$end
$scope module part1_vlg_vec_tst $end
$var reg 1 ! Clk $end
$var reg 1 " R $end
$var reg 1 # S $end
$var wire 1 $ Q $end
$var wire 1 % sampler $end
$scope module i1 $end
$var wire 1 & gnd $end
$var wire 1 ' vcc $end
$var wire 1 ( unknown $end
$var tri1 1 ) devclrn $end
$var tri1 1 * devpor $end
$var tri1 1 + devoe $end
$var wire 1 , S_g~combout $end
$var wire 1 - S~combout $end
$var wire 1 . Qb~combout $end
$var wire 1 / Clk~combout $end
$var wire 1 0 R~combout $end
$var wire 1 1 R_g~combout $end
$var wire 1 2 Qa~combout $end
$upscope $end
$upscope $end
$enddefinitions $end
#0
$dumpvars
1!
0"
0#
x$
x%
0&
1'
x(
1)
1*
1+
x,
0-
x.
1/
00
x1
x2
$end
#5056
01
#5206
0,
#10000
1#
0%
#10822
1-
#16028
1,
#16690
0.
#17352
12
#20000
1"
0#
1%
#20559
1$
#20822
0-
#20852
10
#25908
11
#26028
0,
#26294
02
#26690
1.
#29501
0$
#30000
1#
0%
#30822
1-
#36028
1,
#36690
0.
#40000
0"
0#
1%
#40822
0-
#40852
00
#45908
01
#46028
0,
#46294
12
#49501
1$
#50000
1#
0%
#50822
1-
#56028
1,
#60000
1"
0#
1%
#60822
0-
#60852
10
#65908
11
#66028
0,
#66294
02
#66690
1.
#69501
0$
#70000
1#
0%
#70822
1-
#76028
1,
#76690
0.
#80000
0"
0#
1%
#80822
0-
#80852
00
#85908
01
#86028
0,
#86294
12
#89501
1$
#90000
1#
0%
#90822
1-
#96028
1,
#100000
1"
0#
1%
#100822
0-
#100852
10
#105908
11
#106028
0,
#106294
02
#106690
1.
#109501
0$
#110000
1#
0%
#110822
1-
#116028
1,
#116690
0.
#120000
0"
0#
1%
#120822
0-
#120852
00
#125908
01
#126028
0,
#126294
12
#129501
1$
#130000
1#
0%
#130822
1-
#136028
1,
#140000
1"
0#
1%
#140822
0-
#140852
10
#145908
11
#146028
0,
#146294
02
#146690
1.
#149501
0$
#150000
1#
0%
#150822
1-
#156028
1,
#156690
0.
#160000
0"
0#
1%
#160822
0-
#160852
00
#165908
01
#166028
0,
#166294
12
#169501
1$
#170000
1#
0%
#170822
1-
#176028
1,
#180000
1"
0#
1%
#180822
0-
#180852
10
#185908
11
#186028
0,
#186294
02
#186690
1.
#189501
0$
#190000
1#
0%
#190822
1-
#196028
1,
#196690
0.
#200000
0"
0#
1%
#200822
0-
#200852
00
#205908
01
#206028
0,
#206294
12
#209501
1$
#210000
1#
0%
#210822
1-
#216028
1,
#220000
1"
0#
1%
#220822
0-
#220852
10
#225908
11
#226028
0,
#226294
02
#226690
1.
#229501
0$
#230000
1#
0%
#230822
1-
#236028
1,
#236690
0.
#240000
0"
0#
1%
#240822
0-
#240852
00
#245908
01
#246028
0,
#246294
12
#249501
1$
#250000
1#
0%
#250822
1-
#256028
1,
#260000
1"
0#
1%
#260822
0-
#260852
10
#265908
11
#266028
0,
#266294
02
#266690
1.
#269501
0$
#270000
1#
0%
#270822
1-
#276028
1,
#276690
0.
#280000
0"
0#
1%
#280822
0-
#280852
00
#285908
01
#286028
0,
#286294
12
#289501
1$
#290000
1#
0%
#290822
1-
#296028
1,
#300000
1"
0#
1%
#300822
0-
#300852
10
#305908
11
#306028
0,
#306294
02
#306690
1.
#309501
0$
#310000
1#
0%
#310822
1-
#316028
1,
#316690
0.
#320000
0"
0#
1%
#320822
0-
#320852
00
#325908
01
#326028
0,
#326294
12
#329501
1$
#330000
1#
0%
#330822
1-
#336028
1,
#340000
1"
0#
1%
#340822
0-
#340852
10
#345908
11
#346028
0,
#346294
02
#346690
1.
#349501
0$
#350000
1#
0%
#350822
1-
#356028
1,
#356690
0.
#360000
0"
0#
1%
#360822
0-
#360852
00
#365908
01
#366028
0,
#366294
12
#369501
1$
#370000
1#
0%
#370822
1-
#376028
1,
#380000
1"
0#
1%
#380822
0-
#380852
10
#385908
11
#386028
0,
#386294
02
#386690
1.
#389501
0$
#390000
1#
0%
#390822
1-
#396028
1,
#396690
0.
#400000
0"
0#
1%
#400822
0-
#400852
00
#405908
01
#406028
0,
#406294
12
#409501
1$
#410000
1#
0%
#410822
1-
#416028
1,
#420000
1"
0#
1%
#420822
0-
#420852
10
#425908
11
#426028
0,
#426294
02
#426690
1.
#429501
0$
#430000
1#
0%
#430822
1-
#436028
1,
#436690
0.
#440000
0"
0#
1%
#440822
0-
#440852
00
#445908
01
#446028
0,
#446294
12
#449501
1$
#450000
1#
0%
#450822
1-
#456028
1,
#460000
1"
0#
1%
#460822
0-
#460852
10
#465908
11
#466028
0,
#466294
02
#466690
1.
#469501
0$
#470000
1#
0%
#470822
1-
#476028
1,
#476690
0.
#480000
0"
0#
1%
#480822
0-
#480852
00
#485908
01
#486028
0,
#486294
12
#489501
1$
#490000
1#
0%
#490822
1-
#496028
1,
#500000
1"
0#
1%
#500822
0-
#500852
10
#505908
11
#506028
0,
#506294
02
#506690
1.
#509501
0$
#510000
1#
0%
#510822
1-
#516028
1,
#516690
0.
#520000
0"
0#
1%
#520822
0-
#520852
00
#525908
01
#526028
0,
#526294
12
#529501
1$
#530000
1#
0%
#530822
1-
#536028
1,
#540000
1"
0#
1%
#540822
0-
#540852
10
#545908
11
#546028
0,
#546294
02
#546690
1.
#549501
0$
#550000
1#
0%
#550822
1-
#556028
1,
#556690
0.
#560000
0"
0#
1%
#560822
0-
#560852
00
#565908
01
#566028
0,
#566294
12
#569501
1$
#570000
1#
0%
#570822
1-
#576028
1,
#580000
1"
0#
1%
#580822
0-
#580852
10
#585908
11
#586028
0,
#586294
02
#586690
1.
#589501
0$
#590000
1#
0%
#590822
1-
#596028
1,
#596690
0.
#600000
0"
0#
1%
#600822
0-
#600852
00
#605908
01
#606028
0,
#606294
12
#609501
1$
#610000
1#
0%
#610822
1-
#616028
1,
#620000
1"
0#
1%
#620822
0-
#620852
10
#625908
11
#626028
0,
#626294
02
#626690
1.
#629501
0$
#630000
1#
0%
#630822
1-
#636028
1,
#636690
0.
#640000
0"
0#
1%
#640822
0-
#640852
00
#645908
01
#646028
0,
#646294
12
#649501
1$
#650000
1#
0%
#650822
1-
#656028
1,
#660000
1"
0#
1%
#660822
0-
#660852
10
#665908
11
#666028
0,
#666294
02
#666690
1.
#669501
0$
#670000
1#
0%
#670822
1-
#676028
1,
#676690
0.
#680000
0"
0#
1%
#680822
0-
#680852
00
#685908
01
#686028
0,
#686294
12
#689501
1$
#690000
1#
0%
#690822
1-
#696028
1,
#700000
1"
0#
1%
#700822
0-
#700852
10
#705908
11
#706028
0,
#706294
02
#706690
1.
#709501
0$
#710000
1#
0%
#710822
1-
#716028
1,
#716690
0.
#720000
0"
0#
1%
#720822
0-
#720852
00
#725908
01
#726028
0,
#726294
12
#729501
1$
#730000
1#
0%
#730822
1-
#736028
1,
#740000
1"
0#
1%
#740822
0-
#740852
10
#745908
11
#746028
0,
#746294
02
#746690
1.
#749501
0$
#750000
1#
0%
#750822
1-
#756028
1,
#756690
0.
#760000
0"
0#
1%
#760822
0-
#760852
00
#765908
01
#766028
0,
#766294
12
#769501
1$
#770000
1#
0%
#770822
1-
#776028
1,
#780000
1"
0#
1%
#780822
0-
#780852
10
#785908
11
#786028
0,
#786294
02
#786690
1.
#789501
0$
#790000
1#
0%
#790822
1-
#796028
1,
#796690
0.
#800000
0"
0#
1%
#800822
0-
#800852
00
#805908
01
#806028
0,
#806294
12
#809501
1$
#810000
1#
0%
#810822
1-
#816028
1,
#820000
1"
0#
1%
#820822
0-
#820852
10
#825908
11
#826028
0,
#826294
02
#826690
1.
#829501
0$
#830000
1#
0%
#830822
1-
#836028
1,
#836690
0.
#840000
0"
0#
1%
#840822
0-
#840852
00
#845908
01
#846028
0,
#846294
12
#849501
1$
#850000
1#
0%
#850822
1-
#856028
1,
#860000
1"
0#
1%
#860822
0-
#860852
10
#865908
11
#866028
0,
#866294
02
#866690
1.
#869501
0$
#870000
1#
0%
#870822
1-
#876028
1,
#876690
0.
#880000
0"
0#
1%
#880822
0-
#880852
00
#885908
01
#886028
0,
#886294
12
#889501
1$
#890000
1#
0%
#890822
1-
#896028
1,
#900000
1"
0#
1%
#900822
0-
#900852
10
#905908
11
#906028
0,
#906294
02
#906690
1.
#909501
0$
#910000
1#
0%
#910822
1-
#916028
1,
#916690
0.
#920000
0"
0#
1%
#920822
0-
#920852
00
#925908
01
#926028
0,
#926294
12
#929501
1$
#930000
1#
0%
#930822
1-
#936028
1,
#940000
1"
0#
1%
#940822
0-
#940852
10
#945908
11
#946028
0,
#946294
02
#946690
1.
#949501
0$
#950000
1#
0%
#950822
1-
#956028
1,
#956690
0.
#960000
0"
0#
1%
#960822
0-
#960852
00
#965908
01
#966028
0,
#966294
12
#969501
1$
#970000
1#
0%
#970822
1-
#976028
1,
#980000
1"
0#
1%
#980822
0-
#980852
10
#985908
11
#986028
0,
#986294
02
#986690
1.
#989501
0$
#990000
1#
0%
#990822
1-
#996028
1,
#996690
0.
