basics/mux/simulation/qsim/part6.msim.vcd
$comment
	File created using the following command:
		vcd file part6.msim.vcd -direction
$end
$date
	Tue Jul 27 22:51:29 2021
$end
$version
	ModelSim Version 10.1d
$end
$timescale
	1ps
$end
$scope module part6_vlg_vec_tst $end
$var reg 3 ! SW [17:15] $end
$var wire 1 " HEX0 [0] $end
$var wire 1 # HEX0 [1] $end
$var wire 1 $ HEX0 [2] $end
$var wire 1 % HEX0 [3] $end
$var wire 1 & HEX0 [4] $end
$var wire 1 ' HEX0 [5] $end
$var wire 1 ( HEX0 [6] $end
$var wire 1 ) HEX1 [0] $end
$var wire 1 * HEX1 [1] $end
$var wire 1 + HEX1 [2] $end
$var wire 1 , HEX1 [3] $end
$var wire 1 - HEX1 [4] $end
$var wire 1 . HEX1 [5] $end
$var wire 1 / HEX1 [6] $end
$var wire 1 0 HEX2 [0] $end
$var wire 1 1 HEX2 [1] $end
$var wire 1 2 HEX2 [2] $end
$var wire 1 3 HEX2 [3] $end
$var wire 1 4 HEX2 [4] $end
$var wire 1 5 HEX2 [5] $end
$var wire 1 6 HEX2 [6] $end
$var wire 1 7 HEX3 [0] $end
$var wire 1 8 HEX3 [1] $end
$var wire 1 9 HEX3 [2] $end
$var wire 1 : HEX3 [3] $end
$var wire 1 ; HEX3 [4] $end
$var wire 1 < HEX3 [5] $end
$var wire 1 = HEX3 [6] $end
$var wire 1 > HEX4 [0] $end
$var wire 1 ? HEX4 [1] $end
$var wire 1 @ HEX4 [2] $end
$var wire 1 A HEX4 [3] $end
$var wire 1 B HEX4 [4] $end
$var wire 1 C HEX4 [5] $end
$var wire 1 D HEX4 [6] $end
$var wire 1 E HEX5 [0] $end
$var wire 1 F HEX5 [1] $end
$var wire 1 G HEX5 [2] $end
$var wire 1 H HEX5 [3] $end
$var wire 1 I HEX5 [4] $end
$var wire 1 J HEX5 [5] $end
$var wire 1 K HEX5 [6] $end
$var wire 1 L HEX6 [0] $end
$var wire 1 M HEX6 [1] $end
$var wire 1 N HEX6 [2] $end
$var wire 1 O HEX6 [3] $end
$var wire 1 P HEX6 [4] $end
$var wire 1 Q HEX6 [5] $end
$var wire 1 R HEX6 [6] $end
$var wire 1 S HEX7 [0] $end
$var wire 1 T HEX7 [1] $end
$var wire 1 U HEX7 [2] $end
$var wire 1 V HEX7 [3] $end
$var wire 1 W HEX7 [4] $end
$var wire 1 X HEX7 [5] $end
$var wire 1 Y HEX7 [6] $end
$var wire 1 Z sampler $end
$scope module i1 $end
$var wire 1 [ gnd $end
$var wire 1 \ vcc $end
$var wire 1 ] unknown $end
$var tri1 1 ^ devclrn $end
$var tri1 1 _ devpor $end
$var tri1 1 ` devoe $end
$var wire 1 a MUX0|M[2]~0_combout $end
$var wire 1 b H0|Display[3]~0_combout $end
$var wire 1 c MUX1|Equal4~0_combout $end
$var wire 1 d H0|Display[0]~1_combout $end
$var wire 1 e MUX1|M[2]~0_combout $end
$var wire 1 f H1|Display[3]~0_combout $end
$var wire 1 g H1|Display[2]~1_combout $end
$var wire 1 h H1|Display[0]~2_combout $end
$var wire 1 i MUX2|M[2]~0_combout $end
$var wire 1 j H2|Display[3]~0_combout $end
$var wire 1 k MUX2|Equal4~0_combout $end
$var wire 1 l MUX3|M[2]~0_combout $end
$var wire 1 m H3|Display[3]~0_combout $end
$var wire 1 n H2|Display[3]~1_combout $end
$var wire 1 o S3[2]~0_combout $end
$var wire 1 p MUX4|M[2]~0_combout $end
$var wire 1 q H4|Display[3]~0_combout $end
$var wire 1 r H4|Display[2]~1_combout $end
$var wire 1 s H4|Display[0]~2_combout $end
$var wire 1 t MUX5|M[2]~0_combout $end
$var wire 1 u H5|Display[3]~0_combout $end
$var wire 1 v H5|Display[2]~1_combout $end
$var wire 1 w H5|Display[0]~2_combout $end
$var wire 1 x MUX6|M[2]~0_combout $end
$var wire 1 y H6|Display[3]~0_combout $end
$var wire 1 z H6|Display[2]~1_combout $end
$var wire 1 { MUX6|M[0]~1_combout $end
$var wire 1 | MUX7|M[2]~0_combout $end
$var wire 1 } H7|Display[3]~0_combout $end
$var wire 1 ~ H7|Display[2]~1_combout $end
$var wire 1 !! H7|Display[0]~2_combout $end
$var wire 1 "! SW~combout [17] $end
$var wire 1 #! SW~combout [16] $end
$var wire 1 $! SW~combout [15] $end
$upscope $end
$upscope $end
$enddefinitions $end
#0
$dumpvars
b0 !
0(
0'
0&
0%
0$
0#
0"
0/
0.
0-
0,
0+
0*
0)
06
05
04
03
02
01
00
0=
1<
1;
0:
19
18
07
0D
1C
1B
1A
0@
0?
1>
0K
1J
1I
1H
0G
0F
0E
0R
1Q
1P
1O
0N
0M
0L
0Y
1X
1W
1V
1U
1T
1S
xZ
0[
1\
x]
1^
1_
1`
1a
0b
0c
0d
1e
0f
1g
0h
1i
0j
0k
0l
0m
0n
0o
0p
1q
1r
1s
0t
1u
1v
0w
0x
1y
1z
0{
0|
1}
0~
1!!
0$!
0#!
0"!
$end
#10000
b100 !
1"!
0Z
0!!
1~
0y
1x
0u
1t
0s
0q
1p
1n
1m
1k
1j
0i
0g
0e
1d
1c
1b
0a
0S
0O
0H
0>
0A
1:
10
13
1"
1#
1$
1%
0U
0T
0Q
0P
0J
0I
0C
0B
09
08
15
14
1+
1*
1.
1-
1'
1&
#20000
b110 !
b10 !
1#!
0"!
1Z
0}
1|
1w
1u
0t
0r
0p
1o
0k
1g
1f
0d
0c
0b
1a
0n
0V
1E
1H
17
00
1,
0"
0#
0$
0%
0X
0W
1J
1I
1@
1?
1C
1B
0+
0*
0'
0&
19
18
#30000
b110 !
1"!
0Z
1!!
1}
0|
0z
0x
0v
1r
1p
0o
1n
0m
1l
0j
1i
1b
0a
1S
1V
07
0:
03
1%
1X
1W
1N
1M
1Q
1P
1G
1F
0@
0?
0C
0B
09
08
0<
0;
05
04
1'
1&
#40000
b111 !
b101 !
b1 !
1$!
0#!
0"!
1Z
0!!
0}
1|
1q
0p
1m
0l
1k
1j
0i
0f
1e
0b
1a
0S
0V
1A
1:
10
13
0,
0%
0X
0W
1C
1B
1<
1;
15
14
0.
0-
0'
0&
#50000
b101 !
1"!
0Z
0~
0|
1{
1y
0w
1v
0u
1t
0q
1p
0m
1l
0k
1f
0e
1d
1b
0a
1L
1O
0E
0H
0A
0:
00
1,
1"
1%
1U
1T
1X
1W
0G
0F
0J
0I
0C
0B
0<
0;
1.
1-
1'
1&
#60000
b111 !
b11 !
1#!
0"!
1Z
1~
1|
1z
0y
1x
1q
0p
1o
1m
0l
0j
1h
0g
0d
0{
0O
1A
17
1:
03
11
12
1)
0"
0L
0U
0T
0X
0W
0N
0M
0Q
0P
1C
1B
1<
1;
1+
1*
#70000
b111 !
1"!
0Z
1}
0|
1{
1y
0x
0v
0t
1s
0r
0o
0m
1l
1i
0h
1g
0f
1e
1V
1L
1O
1>
07
0:
01
02
0)
0,
1X
1W
1Q
1P
1G
1F
1J
1I
1@
1?
0<
0;
05
04
0+
0*
0.
0-
#80000
b110 !
b100 !
b0 !
0$!
0#!
0"!
1Z
1!!
0~
0{
1v
1u
1r
0n
0l
0b
1a
1S
0L
1H
0%
1U
1T
0G
0F
0@
0?
19
18
1<
1;
0'
0&
#90000
b100 !
1"!
0Z
0!!
1~
0y
1x
0u
1t
0s
0q
1p
1n
1m
1k
1j
0i
0g
0e
1d
1c
1b
0a
0S
0O
0H
0>
0A
1:
10
13
1"
1#
1$
1%
0U
0T
0Q
0P
0J
0I
0C
0B
09
08
15
14
1+
1*
1.
1-
1'
1&
#100000
b110 !
b10 !
1#!
0"!
1Z
0}
1|
1w
1u
0t
0r
0p
1o
0k
1g
1f
0d
0c
0b
1a
0n
0V
1E
1H
17
00
1,
0"
0#
0$
0%
0X
0W
1J
1I
1@
1?
1C
1B
0+
0*
0'
0&
19
18
#110000
b110 !
1"!
0Z
1!!
1}
0|
0z
0x
0v
1r
1p
0o
1n
0m
1l
0j
1i
1b
0a
1S
1V
07
0:
03
1%
1X
1W
1N
1M
1Q
1P
1G
1F
0@
0?
0C
0B
09
08
0<
0;
05
04
1'
1&
#120000
b111 !
b101 !
b1 !
1$!
0#!
0"!
1Z
0!!
0}
1|
1q
0p
1m
0l
1k
1j
0i
0f
1e
0b
1a
0S
0V
1A
1:
10
13
0,
0%
0X
0W
1C
1B
1<
1;
15
14
0.
0-
0'
0&
#130000
b101 !
1"!
0Z
0~
0|
1{
1y
0w
1v
0u
1t
0q
1p
0m
1l
0k
1f
0e
1d
1b
0a
1L
1O
0E
0H
0A
0:
00
1,
1"
1%
1U
1T
1X
1W
0G
0F
0J
0I
0C
0B
0<
0;
1.
1-
1'
1&
#140000
b111 !
b11 !
1#!
0"!
1Z
1~
1|
1z
0y
1x
1q
0p
1o
1m
0l
0j
1h
0g
0d
0{
0O
1A
17
1:
03
11
12
1)
0"
0L
0U
0T
0X
0W
0N
0M
0Q
0P
1C
1B
1<
1;
1+
1*
#150000
b111 !
1"!
0Z
1}
0|
1{
1y
0x
0v
0t
1s
0r
0o
0m
1l
1i
0h
1g
0f
1e
1V
1L
1O
1>
07
0:
01
02
0)
0,
1X
1W
1Q
1P
1G
1F
1J
1I
1@
1?
0<
0;
05
04
0+
0*
0.
0-
#160000
b110 !
b100 !
b0 !
0$!
0#!
0"!
1Z
1!!
0~
0{
1v
1u
1r
0n
0l
0b
1a
1S
0L
1H
0%
1U
1T
0G
0F
0@
0?
19
18
1<
1;
0'
0&
#170000
b100 !
1"!
0Z
0!!
1~
0y
1x
0u
1t
0s
0q
1p
1n
1m
1k
1j
0i
0g
0e
1d
1c
1b
0a
0S
0O
0H
0>
0A
1:
10
13
1"
1#
1$
1%
0U
0T
0Q
0P
0J
0I
0C
0B
09
08
15
14
1+
1*
1.
1-
1'
1&
#180000
b110 !
b10 !
1#!
0"!
1Z
0}
1|
1w
1u
0t
0r
0p
1o
0k
1g
1f
0d
0c
0b
1a
0n
0V
1E
1H
17
00
1,
0"
0#
0$
0%
0X
0W
1J
1I
1@
1?
1C
1B
0+
0*
0'
0&
19
18
#190000
b110 !
1"!
0Z
1!!
1}
0|
0z
0x
0v
1r
1p
0o
1n
0m
1l
0j
1i
1b
0a
1S
1V
07
0:
03
1%
1X
1W
1N
1M
1Q
1P
1G
1F
0@
0?
0C
0B
09
08
0<
0;
05
04
1'
1&
#200000
b111 !
b101 !
b1 !
1$!
0#!
0"!
1Z
0!!
0}
1|
1q
0p
1m
0l
1k
1j
0i
0f
1e
0b
1a
0S
0V
1A
1:
10
13
0,
0%
0X
0W
1C
1B
1<
1;
15
14
0.
0-
0'
0&
#210000
b101 !
1"!
0Z
0~
0|
1{
1y
0w
1v
0u
1t
0q
1p
0m
1l
0k
1f
0e
1d
1b
0a
1L
1O
0E
0H
0A
0:
00
1,
1"
1%
1U
1T
1X
1W
0G
0F
0J
0I
0C
0B
0<
0;
1.
1-
1'
1&
#220000
b111 !
b11 !
1#!
0"!
1Z
1~
1|
1z
0y
1x
1q
0p
1o
1m
0l
0j
1h
0g
0d
0{
0O
1A
17
1:
03
11
12
1)
0"
0L
0U
0T
0X
0W
0N
0M
0Q
0P
1C
1B
1<
1;
1+
1*
#230000
b111 !
1"!
0Z
1}
0|
1{
1y
0x
0v
0t
1s
0r
0o
0m
1l
1i
0h
1g
0f
1e
1V
1L
1O
1>
07
0:
01
02
0)
0,
1X
1W
1Q
1P
1G
1F
1J
1I
1@
1?
0<
0;
05
04
0+
0*
0.
0-
#240000
b110 !
b100 !
b0 !
0$!
0#!
0"!
1Z
1!!
0~
0{
1v
1u
1r
0n
0l
0b
1a
1S
0L
1H
0%
1U
1T
0G
0F
0@
0?
19
18
1<
1;
0'
0&
#250000
b100 !
1"!
0Z
0!!
1~
0y
1x
0u
1t
0s
0q
1p
1n
1m
1k
1j
0i
0g
0e
1d
1c
1b
0a
0S
0O
0H
0>
0A
1:
10
13
1"
1#
1$
1%
0U
0T
0Q
0P
0J
0I
0C
0B
09
08
15
14
1+
1*
1.
1-
1'
1&
#260000
b110 !
b10 !
1#!
0"!
1Z
0}
1|
1w
1u
0t
0r
0p
1o
0k
1g
1f
0d
0c
0b
1a
0n
0V
1E
1H
17
00
1,
0"
0#
0$
0%
0X
0W
1J
1I
1@
1?
1C
1B
0+
0*
0'
0&
19
18
#270000
b110 !
1"!
0Z
1!!
1}
0|
0z
0x
0v
1r
1p
0o
1n
0m
1l
0j
1i
1b
0a
1S
1V
07
0:
03
1%
1X
1W
1N
1M
1Q
1P
1G
1F
0@
0?
0C
0B
09
08
0<
0;
05
04
1'
1&
#280000
b111 !
b101 !
b1 !
1$!
0#!
0"!
1Z
0!!
0}
1|
1q
0p
1m
0l
1k
1j
0i
0f
1e
0b
1a
0S
0V
1A
1:
10
13
0,
0%
0X
0W
1C
1B
1<
1;
15
14
0.
0-
0'
0&
#290000
b101 !
1"!
0Z
0~
0|
1{
1y
0w
1v
0u
1t
0q
1p
0m
1l
0k
1f
0e
1d
1b
0a
1L
1O
0E
0H
0A
0:
00
1,
1"
1%
1U
1T
1X
1W
0G
0F
0J
0I
0C
0B
0<
0;
1.
1-
1'
1&
#300000
b111 !
b11 !
1#!
0"!
1Z
1~
1|
1z
0y
1x
1q
0p
1o
1m
0l
0j
1h
0g
0d
0{
0O
1A
17
1:
03
11
12
1)
0"
0L
0U
0T
0X
0W
0N
0M
0Q
0P
1C
1B
1<
1;
1+
1*
#310000
b111 !
1"!
0Z
1}
0|
1{
1y
0x
0v
0t
1s
0r
0o
0m
1l
1i
0h
1g
0f
1e
1V
1L
1O
1>
07
0:
01
02
0)
0,
1X
1W
1Q
1P
1G
1F
1J
1I
1@
1?
0<
0;
05
04
0+
0*
0.
0-
#320000
b110 !
b100 !
b0 !
0$!
0#!
0"!
1Z
1!!
0~
0{
1v
1u
1r
0n
0l
0b
1a
1S
0L
1H
0%
1U
1T
0G
0F
0@
0?
19
18
1<
1;
0'
0&
#330000
b100 !
1"!
0Z
0!!
1~
0y
1x
0u
1t
0s
0q
1p
1n
1m
1k
1j
0i
0g
0e
1d
1c
1b
0a
0S
0O
0H
0>
0A
1:
10
13
1"
1#
1$
1%
0U
0T
0Q
0P
0J
0I
0C
0B
09
08
15
14
1+
1*
1.
1-
1'
1&
#340000
b110 !
b10 !
1#!
0"!
1Z
0}
1|
1w
1u
0t
0r
0p
1o
0k
1g
1f
0d
0c
0b
1a
0n
0V
1E
1H
17
00
1,
0"
0#
0$
0%
0X
0W
1J
1I
1@
1?
1C
1B
0+
0*
0'
0&
19
18
#350000
b110 !
1"!
0Z
1!!
1}
0|
0z
0x
0v
1r
1p
0o
1n
0m
1l
0j
1i
1b
0a
1S
1V
07
0:
03
1%
1X
1W
1N
1M
1Q
1P
1G
1F
0@
0?
0C
0B
09
08
0<
0;
05
04
1'
1&
#360000
b111 !
b101 !
b1 !
1$!
0#!
0"!
1Z
0!!
0}
1|
1q
0p
1m
0l
1k
1j
0i
0f
1e
0b
1a
0S
0V
1A
1:
10
13
0,
0%
0X
0W
1C
1B
1<
1;
15
14
0.
0-
0'
0&
#370000
b101 !
1"!
0Z
0~
0|
1{
1y
0w
1v
0u
1t
0q
1p
0m
1l
0k
1f
0e
1d
1b
0a
1L
1O
0E
0H
0A
0:
00
1,
1"
1%
1U
1T
1X
1W
0G
0F
0J
0I
0C
0B
0<
0;
1.
1-
1'
1&
#380000
b111 !
b11 !
1#!
0"!
1Z
1~
1|
1z
0y
1x
1q
0p
1o
1m
0l
0j
1h
0g
0d
0{
0O
1A
17
1:
03
11
12
1)
0"
0L
0U
0T
0X
0W
0N
0M
0Q
0P
1C
1B
1<
1;
1+
1*
#390000
b111 !
1"!
0Z
1}
0|
1{
1y
0x
0v
0t
1s
0r
0o
0m
1l
1i
0h
1g
0f
1e
1V
1L
1O
1>
07
0:
01
02
0)
0,
1X
1W
1Q
1P
1G
1F
1J
1I
1@
1?
0<
0;
05
04
0+
0*
0.
0-
#400000
b110 !
b100 !
b0 !
0$!
0#!
0"!
1Z
1!!
0~
0{
1v
1u
1r
0n
0l
0b
1a
1S
0L
1H
0%
1U
1T
0G
0F
0@
0?
19
18
1<
1;
0'
0&
#410000
b100 !
1"!
0Z
0!!
1~
0y
1x
0u
1t
0s
0q
1p
1n
1m
1k
1j
0i
0g
0e
1d
1c
1b
0a
0S
0O
0H
0>
0A
1:
10
13
1"
1#
1$
1%
0U
0T
0Q
0P
0J
0I
0C
0B
09
08
15
14
1+
1*
1.
1-
1'
1&
#420000
b110 !
b10 !
1#!
0"!
1Z
0}
1|
1w
1u
0t
0r
0p
1o
0k
1g
1f
0d
0c
0b
1a
0n
0V
1E
1H
17
00
1,
0"
0#
0$
0%
0X
0W
1J
1I
1@
1?
1C
1B
0+
0*
0'
0&
19
18
#430000
b110 !
1"!
0Z
1!!
1}
0|
0z
0x
0v
1r
1p
0o
1n
0m
1l
0j
1i
1b
0a
1S
1V
07
0:
03
1%
1X
1W
1N
1M
1Q
1P
1G
1F
0@
0?
0C
0B
09
08
0<
0;
05
04
1'
1&
#440000
b111 !
b101 !
b1 !
1$!
0#!
0"!
1Z
0!!
0}
1|
1q
0p
1m
0l
1k
1j
0i
0f
1e
0b
1a
0S
0V
1A
1:
10
13
0,
0%
0X
0W
1C
1B
1<
1;
15
14
0.
0-
0'
0&
#450000
b101 !
1"!
0Z
0~
0|
1{
1y
0w
1v
0u
1t
0q
1p
0m
1l
0k
1f
0e
1d
1b
0a
1L
1O
0E
0H
0A
0:
00
1,
1"
1%
1U
1T
1X
1W
0G
0F
0J
0I
0C
0B
0<
0;
1.
1-
1'
1&
#460000
b111 !
b11 !
1#!
0"!
1Z
1~
1|
1z
0y
1x
1q
0p
1o
1m
0l
0j
1h
0g
0d
0{
0O
1A
17
1:
03
11
12
1)
0"
0L
0U
0T
0X
0W
0N
0M
0Q
0P
1C
1B
1<
1;
1+
1*
#470000
b111 !
1"!
0Z
1}
0|
1{
1y
0x
0v
0t
1s
0r
0o
0m
1l
1i
0h
1g
0f
1e
1V
1L
1O
1>
07
0:
01
02
0)
0,
1X
1W
1Q
1P
1G
1F
1J
1I
1@
1?
0<
0;
05
04
0+
0*
0.
0-
#480000
b110 !
b100 !
b0 !
0$!
0#!
0"!
1Z
1!!
0~
0{
1v
1u
1r
0n
0l
0b
1a
1S
0L
1H
0%
1U
1T
0G
0F
0@
0?
19
18
1<
1;
0'
0&
#490000
b100 !
1"!
0Z
0!!
1~
0y
1x
0u
1t
0s
0q
1p
1n
1m
1k
1j
0i
0g
0e
1d
1c
1b
0a
0S
0O
0H
0>
0A
1:
10
13
1"
1#
1$
1%
0U
0T
0Q
0P
0J
0I
0C
0B
09
08
15
14
1+
1*
1.
1-
1'
1&
#500000
b110 !
b10 !
1#!
0"!
1Z
0}
1|
1w
1u
0t
0r
0p
1o
0k
1g
1f
0d
0c
0b
1a
0n
0V
1E
1H
17
00
1,
0"
0#
0$
0%
0X
0W
1J
1I
1@
1?
1C
1B
0+
0*
0'
0&
19
18
#510000
b110 !
1"!
0Z
1!!
1}
0|
0z
0x
0v
1r
1p
0o
1n
0m
1l
0j
1i
1b
0a
1S
1V
07
0:
03
1%
1X
1W
1N
1M
1Q
1P
1G
1F
0@
0?
0C
0B
09
08
0<
0;
05
04
1'
1&
#520000
b111 !
b101 !
b1 !
1$!
0#!
0"!
1Z
0!!
0}
1|
1q
0p
1m
0l
1k
1j
0i
0f
1e
0b
1a
0S
0V
1A
1:
10
13
0,
0%
0X
0W
1C
1B
1<
1;
15
14
0.
0-
0'
0&
#530000
b101 !
1"!
0Z
0~
0|
1{
1y
0w
1v
0u
1t
0q
1p
0m
1l
0k
1f
0e
1d
1b
0a
1L
1O
0E
0H
0A
0:
00
1,
1"
1%
1U
1T
1X
1W
0G
0F
0J
0I
0C
0B
0<
0;
1.
1-
1'
1&
#540000
b111 !
b11 !
1#!
0"!
1Z
1~
1|
1z
0y
1x
1q
0p
1o
1m
0l
0j
1h
0g
0d
0{
0O
1A
17
1:
03
11
12
1)
0"
0L
0U
0T
0X
0W
0N
0M
0Q
0P
1C
1B
1<
1;
1+
1*
#550000
b111 !
1"!
0Z
1}
0|
1{
1y
0x
0v
0t
1s
0r
0o
0m
1l
1i
0h
1g
0f
1e
1V
1L
1O
1>
07
0:
01
02
0)
0,
1X
1W
1Q
1P
1G
1F
1J
1I
1@
1?
0<
0;
05
04
0+
0*
0.
0-
#560000
b110 !
b100 !
b0 !
0$!
0#!
0"!
1Z
1!!
0~
0{
1v
1u
1r
0n
0l
0b
1a
1S
0L
1H
0%
1U
1T
0G
0F
0@
0?
19
18
1<
1;
0'
0&
#570000
b100 !
1"!
0Z
0!!
1~
0y
1x
0u
1t
0s
0q
1p
1n
1m
1k
1j
0i
0g
0e
1d
1c
1b
0a
0S
0O
0H
0>
0A
1:
10
13
1"
1#
1$
1%
0U
0T
0Q
0P
0J
0I
0C
0B
09
08
15
14
1+
1*
1.
1-
1'
1&
#580000
b110 !
b10 !
1#!
0"!
1Z
0}
1|
1w
1u
0t
0r
0p
1o
0k
1g
1f
0d
0c
0b
1a
0n
0V
1E
1H
17
00
1,
0"
0#
0$
0%
0X
0W
1J
1I
1@
1?
1C
1B
0+
0*
0'
0&
19
18
#590000
b110 !
1"!
0Z
1!!
1}
0|
0z
0x
0v
1r
1p
0o
1n
0m
1l
0j
1i
1b
0a
1S
1V
07
0:
03
1%
1X
1W
1N
1M
1Q
1P
1G
1F
0@
0?
0C
0B
09
08
0<
0;
05
04
1'
1&
#600000
b111 !
b101 !
b1 !
1$!
0#!
0"!
1Z
0!!
0}
1|
1q
0p
1m
0l
1k
1j
0i
0f
1e
0b
1a
0S
0V
1A
1:
10
13
0,
0%
0X
0W
1C
1B
1<
1;
15
14
0.
0-
0'
0&
#610000
b101 !
1"!
0Z
0~
0|
1{
1y
0w
1v
0u
1t
0q
1p
0m
1l
0k
1f
0e
1d
1b
0a
1L
1O
0E
0H
0A
0:
00
1,
1"
1%
1U
1T
1X
1W
0G
0F
0J
0I
0C
0B
0<
0;
1.
1-
1'
1&
#620000
b111 !
b11 !
1#!
0"!
1Z
1~
1|
1z
0y
1x
1q
0p
1o
1m
0l
0j
1h
0g
0d
0{
0O
1A
17
1:
03
11
12
1)
0"
0L
0U
0T
0X
0W
0N
0M
0Q
0P
1C
1B
1<
1;
1+
1*
#630000
b111 !
1"!
0Z
1}
0|
1{
1y
0x
0v
0t
1s
0r
0o
0m
1l
1i
0h
1g
0f
1e
1V
1L
1O
1>
07
0:
01
02
0)
0,
1X
1W
1Q
1P
1G
1F
1J
1I
1@
1?
0<
0;
05
04
0+
0*
0.
0-
#640000
b110 !
b100 !
b0 !
0$!
0#!
0"!
1Z
1!!
0~
0{
1v
1u
1r
0n
0l
0b
1a
1S
0L
1H
0%
1U
1T
0G
0F
0@
0?
19
18
1<
1;
0'
0&
#650000
b100 !
1"!
0Z
0!!
1~
0y
1x
0u
1t
0s
0q
1p
1n
1m
1k
1j
0i
0g
0e
1d
1c
1b
0a
0S
0O
0H
0>
0A
1:
10
13
1"
1#
1$
1%
0U
0T
0Q
0P
0J
0I
0C
0B
09
08
15
14
1+
1*
1.
1-
1'
1&
#660000
b110 !
b10 !
1#!
0"!
1Z
0}
1|
1w
1u
0t
0r
0p
1o
0k
1g
1f
0d
0c
0b
1a
0n
0V
1E
1H
17
00
1,
0"
0#
0$
0%
0X
0W
1J
1I
1@
1?
1C
1B
0+
0*
0'
0&
19
18
#670000
b110 !
1"!
0Z
1!!
1}
0|
0z
0x
0v
1r
1p
0o
1n
0m
1l
0j
1i
1b
0a
1S
1V
07
0:
03
1%
1X
1W
1N
1M
1Q
1P
1G
1F
0@
0?
0C
0B
09
08
0<
0;
05
04
1'
1&
#680000
b111 !
b101 !
b1 !
1$!
0#!
0"!
1Z
0!!
0}
1|
1q
0p
1m
0l
1k
1j
0i
0f
1e
0b
1a
0S
0V
1A
1:
10
13
0,
0%
0X
0W
1C
1B
1<
1;
15
14
0.
0-
0'
0&
#690000
b101 !
1"!
0Z
0~
0|
1{
1y
0w
1v
0u
1t
0q
1p
0m
1l
0k
1f
0e
1d
1b
0a
1L
1O
0E
0H
0A
0:
00
1,
1"
1%
1U
1T
1X
1W
0G
0F
0J
0I
0C
0B
0<
0;
1.
1-
1'
1&
#700000
b111 !
b11 !
1#!
0"!
1Z
1~
1|
1z
0y
1x
1q
0p
1o
1m
0l
0j
1h
0g
0d
0{
0O
1A
17
1:
03
11
12
1)
0"
0L
0U
0T
0X
0W
0N
0M
0Q
0P
1C
1B
1<
1;
1+
1*
#710000
b111 !
1"!
0Z
1}
0|
1{
1y
0x
0v
0t
1s
0r
0o
0m
1l
1i
0h
1g
0f
1e
1V
1L
1O
1>
07
0:
01
02
0)
0,
1X
1W
1Q
1P
1G
1F
1J
1I
1@
1?
0<
0;
05
04
0+
0*
0.
0-
#720000
b110 !
b100 !
b0 !
0$!
0#!
0"!
1Z
1!!
0~
0{
1v
1u
1r
0n
0l
0b
1a
1S
0L
1H
0%
1U
1T
0G
0F
0@
0?
19
18
1<
1;
0'
0&
#730000
b100 !
1"!
0Z
0!!
1~
0y
1x
0u
1t
0s
0q
1p
1n
1m
1k
1j
0i
0g
0e
1d
1c
1b
0a
0S
0O
0H
0>
0A
1:
10
13
1"
1#
1$
1%
0U
0T
0Q
0P
0J
0I
0C
0B
09
08
15
14
1+
1*
1.
1-
1'
1&
#740000
b110 !
b10 !
1#!
0"!
1Z
0}
1|
1w
1u
0t
0r
0p
1o
0k
1g
1f
0d
0c
0b
1a
0n
0V
1E
1H
17
00
1,
0"
0#
0$
0%
0X
0W
1J
1I
1@
1?
1C
1B
0+
0*
0'
0&
19
18
#750000
b110 !
1"!
0Z
1!!
1}
0|
0z
0x
0v
1r
1p
0o
1n
0m
1l
0j
1i
1b
0a
1S
1V
07
0:
03
1%
1X
1W
1N
1M
1Q
1P
1G
1F
0@
0?
0C
0B
09
08
0<
0;
05
04
1'
1&
#760000
b111 !
b101 !
b1 !
1$!
0#!
0"!
1Z
0!!
0}
1|
1q
0p
1m
0l
1k
1j
0i
0f
1e
0b
1a
0S
0V
1A
1:
10
13
0,
0%
0X
0W
1C
1B
1<
1;
15
14
0.
0-
0'
0&
#770000
b101 !
1"!
0Z
0~
0|
1{
1y
0w
1v
0u
1t
0q
1p
0m
1l
0k
1f
0e
1d
1b
0a
1L
1O
0E
0H
0A
0:
00
1,
1"
1%
1U
1T
1X
1W
0G
0F
0J
0I
0C
0B
0<
0;
1.
1-
1'
1&
#780000
b111 !
b11 !
1#!
0"!
1Z
1~
1|
1z
0y
1x
1q
0p
1o
1m
0l
0j
1h
0g
0d
0{
0O
1A
17
1:
03
11
12
1)
0"
0L
0U
0T
0X
0W
0N
0M
0Q
0P
1C
1B
1<
1;
1+
1*
#790000
b111 !
1"!
0Z
1}
0|
1{
1y
0x
0v
0t
1s
0r
0o
0m
1l
1i
0h
1g
0f
1e
1V
1L
1O
1>
07
0:
01
02
0)
0,
1X
1W
1Q
1P
1G
1F
1J
1I
1@
1?
0<
0;
05
04
0+
0*
0.
0-
#800000
b110 !
b100 !
b0 !
0$!
0#!
0"!
1Z
1!!
0~
0{
1v
1u
1r
0n
0l
0b
1a
1S
0L
1H
0%
1U
1T
0G
0F
0@
0?
19
18
1<
1;
0'
0&
#810000
b100 !
1"!
0Z
0!!
1~
0y
1x
0u
1t
0s
0q
1p
1n
1m
1k
1j
0i
0g
0e
1d
1c
1b
0a
0S
0O
0H
0>
0A
1:
10
13
1"
1#
1$
1%
0U
0T
0Q
0P
0J
0I
0C
0B
09
08
15
14
1+
1*
1.
1-
1'
1&
#820000
b110 !
b10 !
1#!
0"!
1Z
0}
1|
1w
1u
0t
0r
0p
1o
0k
1g
1f
0d
0c
0b
1a
0n
0V
1E
1H
17
00
1,
0"
0#
0$
0%
0X
0W
1J
1I
1@
1?
1C
1B
0+
0*
0'
0&
19
18
#830000
b110 !
1"!
0Z
1!!
1}
0|
0z
0x
0v
1r
1p
0o
1n
0m
1l
0j
1i
1b
0a
1S
1V
07
0:
03
1%
1X
1W
1N
1M
1Q
1P
1G
1F
0@
0?
0C
0B
09
08
0<
0;
05
04
1'
1&
#840000
b111 !
b101 !
b1 !
1$!
0#!
0"!
1Z
0!!
0}
1|
1q
0p
1m
0l
1k
1j
0i
0f
1e
0b
1a
0S
0V
1A
1:
10
13
0,
0%
0X
0W
1C
1B
1<
1;
15
14
0.
0-
0'
0&
#850000
b101 !
1"!
0Z
0~
0|
1{
1y
0w
1v
0u
1t
0q
1p
0m
1l
0k
1f
0e
1d
1b
0a
1L
1O
0E
0H
0A
0:
00
1,
1"
1%
1U
1T
1X
1W
0G
0F
0J
0I
0C
0B
0<
0;
1.
1-
1'
1&
#860000
b111 !
b11 !
1#!
0"!
1Z
1~
1|
1z
0y
1x
1q
0p
1o
1m
0l
0j
1h
0g
0d
0{
0O
1A
17
1:
03
11
12
1)
0"
0L
0U
0T
0X
0W
0N
0M
0Q
0P
1C
1B
1<
1;
1+
1*
#870000
b111 !
1"!
0Z
1}
0|
1{
1y
0x
0v
0t
1s
0r
0o
0m
1l
1i
0h
1g
0f
1e
1V
1L
1O
1>
07
0:
01
02
0)
0,
1X
1W
1Q
1P
1G
1F
1J
1I
1@
1?
0<
0;
05
04
0+
0*
0.
0-
#880000
b110 !
b100 !
b0 !
0$!
0#!
0"!
1Z
1!!
0~
0{
1v
1u
1r
0n
0l
0b
1a
1S
0L
1H
0%
1U
1T
0G
0F
0@
0?
19
18
1<
1;
0'
0&
