basics/D-latch/simulation/qsim/part2.msim.vcd
$comment
	File created using the following command:
		vcd file part2.msim.vcd -direction
$end
$date
	Tue Aug 10 20:31:38 2021
$end
$version
	ModelSim Version 10.1d
$end
$timescale
	1ps
$end
$scope module part2_vlg_vec_tst $end
$var reg 1 ! Clk $end
$var reg 1 " S $end
$var wire 1 # Q $end
$var wire 1 $ sampler $end
$scope module i1 $end
$var wire 1 % gnd $end
$var wire 1 & vcc $end
$var wire 1 ' unknown $end
$var tri1 1 ( devclrn $end
$var tri1 1 ) devpor $end
$var tri1 1 * devoe $end
$var wire 1 + R_g~combout $end
$var wire 1 , R~combout $end
$var wire 1 - Qb~combout $end
$var wire 1 . Clk~combout $end
$var wire 1 / S~combout $end
$var wire 1 0 S_g~combout $end
$var wire 1 1 Qa~combout $end
$upscope $end
$upscope $end
$enddefinitions $end
#0
$dumpvars
1!
0"
x#
x$
0%
1&
x'
1(
1)
1*
x+
x,
x-
1.
0/
x0
x1
$end
#799
1,
#803
10
#1323
0+
#2025
1-
#2727
01
#6313
0#
#10000
1"
0$
#10959
1/
#11758
0,
#11762
00
#12148
11
#12282
1+
#12984
0-
#15734
1#
#20000
0"
1$
#20959
0/
#21758
1,
#21762
10
#22282
0+
#22984
1-
#23686
01
#27272
0#
#30000
1"
0$
#30959
1/
#31758
0,
#31762
00
#32148
11
#32282
1+
#32984
0-
#35734
1#
#40000
0!
0"
1$
#40959
0/
0.
#41758
1,
#41762
10
#50000
1"
0$
#50959
1/
#51758
0,
#60000
0"
1$
#60959
0/
#61758
1,
#70000
1"
0$
#70959
1/
#71758
0,
#80000
1!
0"
1$
#80959
0/
1.
#81758
1,
#82282
0+
#82984
1-
#83686
01
#87272
0#
#90000
1"
0$
#90959
1/
#91758
0,
#91762
00
#92148
11
#92282
1+
#92984
0-
#95734
1#
#100000
0"
1$
#100959
0/
#101758
1,
#101762
10
#102282
0+
#102984
1-
#103686
01
#107272
0#
#110000
1"
0$
#110959
1/
#111758
0,
#111762
00
#112148
11
#112282
1+
#112984
0-
#115734
1#
#120000
0!
0"
1$
#120959
0/
0.
#121758
1,
#121762
10
#130000
1"
0$
#130959
1/
#131758
0,
#140000
0"
1$
#140959
0/
#141758
1,
#150000
1"
0$
#150959
1/
#151758
0,
#160000
1!
0"
1$
#160959
0/
1.
#161758
1,
#162282
0+
#162984
1-
#163686
01
#167272
0#
#170000
1"
0$
#170959
1/
#171758
0,
#171762
00
#172148
11
#172282
1+
#172984
0-
#175734
1#
#180000
0"
1$
#180959
0/
#181758
1,
#181762
10
#182282
0+
#182984
1-
#183686
01
#187272
0#
#190000
1"
0$
#190959
1/
#191758
0,
#191762
00
#192148
11
#192282
1+
#192984
0-
#195734
1#
#200000
0!
0"
1$
#200959
0/
0.
#201758
1,
#201762
10
#210000
1"
0$
#210959
1/
#211758
0,
#220000
0"
1$
#220959
0/
#221758
1,
#230000
1"
0$
#230959
1/
#231758
0,
#240000
1!
0"
1$
#240959
0/
1.
#241758
1,
#242282
0+
#242984
1-
#243686
01
#247272
0#
#250000
1"
0$
#250959
1/
#251758
0,
#251762
00
#252148
11
#252282
1+
#252984
0-
#255734
1#
#260000
0"
1$
#260959
0/
#261758
1,
#261762
10
#262282
0+
#262984
1-
#263686
01
#267272
0#
#270000
1"
0$
#270959
1/
#271758
0,
#271762
00
#272148
11
#272282
1+
#272984
0-
#275734
1#
#280000
0!
0"
1$
#280959
0/
0.
#281758
1,
#281762
10
#290000
1"
0$
#290959
1/
#291758
0,
#300000
0"
1$
#300959
0/
#301758
1,
#310000
1"
0$
#310959
1/
#311758
0,
#320000
1!
0"
1$
#320959
0/
1.
#321758
1,
#322282
0+
#322984
1-
#323686
01
#327272
0#
#330000
1"
0$
#330959
1/
#331758
0,
#331762
00
#332148
11
#332282
1+
#332984
0-
#335734
1#
#340000
0"
1$
#340959
0/
#341758
1,
#341762
10
#342282
0+
#342984
1-
#343686
01
#347272
0#
#350000
1"
0$
#350959
1/
#351758
0,
#351762
00
#352148
11
#352282
1+
#352984
0-
#355734
1#
#360000
0!
0"
1$
#360959
0/
0.
#361758
1,
#361762
10
#370000
1"
0$
#370959
1/
#371758
0,
#380000
0"
1$
#380959
0/
#381758
1,
#390000
1"
0$
#390959
1/
#391758
0,
#400000
1!
0"
1$
#400959
0/
1.
#401758
1,
#402282
0+
#402984
1-
#403686
01
#407272
0#
#410000
1"
0$
#410959
1/
#411758
0,
#411762
00
#412148
11
#412282
1+
#412984
0-
#415734
1#
#420000
0"
1$
#420959
0/
#421758
1,
#421762
10
#422282
0+
#422984
1-
#423686
01
#427272
0#
#430000
1"
0$
#430959
1/
#431758
0,
#431762
00
#432148
11
#432282
1+
#432984
0-
#435734
1#
#440000
0!
0"
1$
#440959
0/
0.
#441758
1,
#441762
10
#450000
1"
0$
#450959
1/
#451758
0,
#460000
0"
1$
#460959
0/
#461758
1,
#470000
1"
0$
#470959
1/
#471758
0,
#480000
1!
0"
1$
#480959
0/
1.
#481758
1,
#482282
0+
#482984
1-
#483686
01
#487272
0#
#490000
1"
0$
#490959
1/
#491758
0,
#491762
00
#492148
11
#492282
1+
#492984
0-
#495734
1#
#500000
0"
1$
#500959
0/
#501758
1,
#501762
10
#502282
0+
#502984
1-
#503686
01
#507272
0#
#510000
1"
0$
#510959
1/
#511758
0,
#511762
00
#512148
11
#512282
1+
#512984
0-
#515734
1#
#520000
0!
0"
1$
#520959
0/
0.
#521758
1,
#521762
10
#530000
1"
0$
#530959
1/
#531758
0,
#540000
0"
1$
#540959
0/
#541758
1,
#550000
1"
0$
#550959
1/
#551758
0,
#560000
1!
0"
1$
#560959
0/
1.
#561758
1,
#562282
0+
#562984
1-
#563686
01
#567272
0#
#570000
1"
0$
#570959
1/
#571758
0,
#571762
00
#572148
11
#572282
1+
#572984
0-
#575734
1#
#580000
0"
1$
#580959
0/
#581758
1,
#581762
10
#582282
0+
#582984
1-
#583686
01
#587272
0#
#590000
1"
0$
#590959
1/
#591758
0,
#591762
00
#592148
11
#592282
1+
#592984
0-
#595734
1#
#600000
0!
0"
1$
#600959
0/
0.
#601758
1,
#601762
10
#610000
1"
0$
#610959
1/
#611758
0,
#620000
0"
1$
#620959
0/
#621758
1,
#630000
1"
0$
#630959
1/
#631758
0,
#640000
1!
0"
1$
#640959
0/
1.
#641758
1,
#642282
0+
#642984
1-
#643686
01
#647272
0#
#650000
1"
0$
#650959
1/
#651758
0,
#651762
00
#652148
11
#652282
1+
#652984
0-
#655734
1#
#660000
0"
1$
#660959
0/
#661758
1,
#661762
10
#662282
0+
#662984
1-
#663686
01
#667272
0#
#670000
1"
0$
#670959
1/
#671758
0,
#671762
00
#672148
11
#672282
1+
#672984
0-
#675734
1#
#680000
0!
0"
1$
#680959
0/
0.
#681758
1,
#681762
10
#690000
1"
0$
#690959
1/
#691758
0,
#700000
0"
1$
#700959
0/
#701758
1,
#710000
1"
0$
#710959
1/
#711758
0,
#720000
1!
0"
1$
#720959
0/
1.
#721758
1,
#722282
0+
#722984
1-
#723686
01
#727272
0#
#730000
1"
0$
#730959
1/
#731758
0,
#731762
00
#732148
11
#732282
1+
#732984
0-
#735734
1#
#740000
0"
1$
#740959
0/
#741758
1,
#741762
10
#742282
0+
#742984
1-
#743686
01
#747272
0#
#750000
1"
0$
#750959
1/
#751758
0,
#751762
00
#752148
11
#752282
1+
#752984
0-
#755734
1#
#760000
0!
0"
1$
#760959
0/
0.
#761758
1,
#761762
10
#770000
1"
0$
#770959
1/
#771758
0,
#780000
0"
1$
#780959
0/
#781758
1,
#790000
1"
0$
#790959
1/
#791758
0,
#800000
1!
0"
1$
#800959
0/
1.
#801758
1,
#802282
0+
#802984
1-
#803686
01
#807272
0#
#810000
1"
0$
#810959
1/
#811758
0,
#811762
00
#812148
11
#812282
1+
#812984
0-
#815734
1#
#820000
0"
1$
#820959
0/
#821758
1,
#821762
10
#822282
0+
#822984
1-
#823686
01
#827272
0#
#830000
1"
0$
#830959
1/
#831758
0,
#831762
00
#832148
11
#832282
1+
#832984
0-
#835734
1#
#840000
0!
0"
1$
#840959
0/
0.
#841758
1,
#841762
10
#850000
1"
0$
#850959
1/
#851758
0,
#860000
0"
1$
#860959
0/
#861758
1,
#870000
1"
0$
#870959
1/
#871758
0,
#880000
1!
0"
1$
#880959
0/
1.
#881758
1,
#882282
0+
#882984
1-
#883686
01
#887272
0#
#890000
1"
0$
#890959
1/
#891758
0,
#891762
00
#892148
11
#892282
1+
#892984
0-
#895734
1#
#900000
0"
1$
#900959
0/
#901758
1,
#901762
10
#902282
0+
#902984
1-
#903686
01
#907272
0#
#910000
1"
0$
#910959
1/
#911758
0,
#911762
00
#912148
11
#912282
1+
#912984
0-
#915734
1#
#920000
0!
0"
1$
#920959
0/
0.
#921758
1,
#921762
10
#930000
1"
0$
#930959
1/
#931758
0,
#940000
0"
1$
#940959
0/
#941758
1,
#950000
1"
0$
#950959
1/
#951758
0,
#960000
1!
0"
1$
#960959
0/
1.
#961758
1,
#962282
0+
#962984
1-
#963686
01
#967272
0#
#970000
1"
0$
#970959
1/
#971758
0,
#971762
00
#972148
11
#972282
1+
#972984
0-
#975734
1#
#980000
0"
1$
#980959
0/
#981758
1,
#981762
10
#982282
0+
#982984
1-
#983686
01
#987272
0#
#990000
1"
0$
#990959
1/
#991758
0,
#991762
00
#992148
11
#992282
1+
#992984
0-
#995734
1#
