basics/D-flip-flop/simulation/qsim/part3.msim.vcd
$comment
	File created using the following command:
		vcd file part3.msim.vcd -direction
$end
$date
	Tue Aug 10 20:52:27 2021
$end
$version
	ModelSim Version 10.1d
$end
$timescale
	1ps
$end
$scope module part3_vlg_vec_tst $end
$var reg 1 ! ClkD $end
$var reg 1 " D $end
$var wire 1 # Q1 $end
$var wire 1 $ Q2 $end
$var wire 1 % sampler $end
$scope module i1 $end
$var wire 1 & gnd $end
$var wire 1 ' vcc $end
$var wire 1 ( unknown $end
$var tri1 1 ) devclrn $end
$var tri1 1 * devpor $end
$var tri1 1 + devoe $end
$var wire 1 , D1|R~combout $end
$var wire 1 - D~combout $end
$var wire 1 . ClkD~combout $end
$var wire 1 / D1|S_g~combout $end
$var wire 1 0 D1|R_g~combout $end
$var wire 1 1 D1|Qb~combout $end
$var wire 1 2 D1|Qa~combout $end
$var wire 1 3 Qm~combout $end
$var wire 1 4 D2|R~combout $end
$var wire 1 5 D2|R_g~combout $end
$var wire 1 6 D2|Qb~combout $end
$var wire 1 7 D2|S_g~combout $end
$var wire 1 8 D2|Qa~combout $end
$var wire 1 9 Qs~combout $end
$upscope $end
$upscope $end
$enddefinitions $end
#0
$dumpvars
0!
0"
x#
x$
x%
0&
1'
x(
1)
1*
1+
x,
0-
0.
x/
x0
x1
x2
x3
x4
x5
x6
x7
x8
x9
$end
#4630
1,
#4942
1/
#5072
17
#5246
15
#5337
00
#6015
11
#6412
02
#6805
03
#7214
14
#10000
1!
0%
#10832
1.
#15874
10
#16078
05
#16471
16
#17140
08
#17641
09
#20000
1"
0!
1%
#20822
1-
#20832
0.
#23964
1$
#25452
0,
#25874
0/
#26078
15
#26107
0#
#26554
12
#26947
13
#26951
01
#27356
04
#30000
1!
0%
#30832
1.
#35874
1/
#35904
07
#36300
18
#36801
19
#36831
06
#40000
0"
0!
1%
#40822
0-
#40832
0.
#43124
0$
#45267
1#
#45452
1,
#45904
17
#46159
00
#46837
11
#47234
02
#47627
03
#48036
14
#50000
1!
0%
#50832
1.
#55874
10
#56078
05
#56471
16
#57140
08
#57641
09
#60000
1"
0!
1%
#60822
1-
#60832
0.
#63964
1$
#65452
0,
#65874
0/
#66078
15
#66107
0#
#66554
12
#66947
13
#66951
01
#67356
04
#70000
1!
0%
#70832
1.
#75874
1/
#75904
07
#76300
18
#76801
19
#76831
06
#80000
0"
0!
1%
#80822
0-
#80832
0.
#83124
0$
#85267
1#
#85452
1,
#85904
17
#86159
00
#86837
11
#87234
02
#87627
03
#88036
14
#90000
1!
0%
#90832
1.
#95874
10
#96078
05
#96471
16
#97140
08
#97641
09
#100000
1"
0!
1%
#100822
1-
#100832
0.
#103964
1$
#105452
0,
#105874
0/
#106078
15
#106107
0#
#106554
12
#106947
13
#106951
01
#107356
04
#110000
1!
0%
#110832
1.
#115874
1/
#115904
07
#116300
18
#116801
19
#116831
06
#120000
0"
0!
1%
#120822
0-
#120832
0.
#123124
0$
#125267
1#
#125452
1,
#125904
17
#126159
00
#126837
11
#127234
02
#127627
03
#128036
14
#130000
1!
0%
#130832
1.
#135874
10
#136078
05
#136471
16
#137140
08
#137641
09
#140000
1"
0!
1%
#140822
1-
#140832
0.
#143964
1$
#145452
0,
#145874
0/
#146078
15
#146107
0#
#146554
12
#146947
13
#146951
01
#147356
04
#150000
1!
0%
#150832
1.
#155874
1/
#155904
07
#156300
18
#156801
19
#156831
06
#160000
0"
0!
1%
#160822
0-
#160832
0.
#163124
0$
#165267
1#
#165452
1,
#165904
17
#166159
00
#166837
11
#167234
02
#167627
03
#168036
14
#170000
1!
0%
#170832
1.
#175874
10
#176078
05
#176471
16
#177140
08
#177641
09
#180000
1"
0!
1%
#180822
1-
#180832
0.
#183964
1$
#185452
0,
#185874
0/
#186078
15
#186107
0#
#186554
12
#186947
13
#186951
01
#187356
04
#190000
1!
0%
#190832
1.
#195874
1/
#195904
07
#196300
18
#196801
19
#196831
06
#200000
0"
0!
1%
#200822
0-
#200832
0.
#203124
0$
#205267
1#
#205452
1,
#205904
17
#206159
00
#206837
11
#207234
02
#207627
03
#208036
14
#210000
1!
0%
#210832
1.
#215874
10
#216078
05
#216471
16
#217140
08
#217641
09
#220000
1"
0!
1%
#220822
1-
#220832
0.
#223964
1$
#225452
0,
#225874
0/
#226078
15
#226107
0#
#226554
12
#226947
13
#226951
01
#227356
04
#230000
1!
0%
#230832
1.
#235874
1/
#235904
07
#236300
18
#236801
19
#236831
06
#240000
0"
0!
1%
#240822
0-
#240832
0.
#243124
0$
#245267
1#
#245452
1,
#245904
17
#246159
00
#246837
11
#247234
02
#247627
03
#248036
14
#250000
1!
0%
#250832
1.
#255874
10
#256078
05
#256471
16
#257140
08
#257641
09
#260000
1"
0!
1%
#260822
1-
#260832
0.
#263964
1$
#265452
0,
#265874
0/
#266078
15
#266107
0#
#266554
12
#266947
13
#266951
01
#267356
04
#270000
1!
0%
#270832
1.
#275874
1/
#275904
07
#276300
18
#276801
19
#276831
06
#280000
0"
0!
1%
#280822
0-
#280832
0.
#283124
0$
#285267
1#
#285452
1,
#285904
17
#286159
00
#286837
11
#287234
02
#287627
03
#288036
14
#290000
1!
0%
#290832
1.
#295874
10
#296078
05
#296471
16
#297140
08
#297641
09
#300000
1"
0!
1%
#300822
1-
#300832
0.
#303964
1$
#305452
0,
#305874
0/
#306078
15
#306107
0#
#306554
12
#306947
13
#306951
01
#307356
04
#310000
1!
0%
#310832
1.
#315874
1/
#315904
07
#316300
18
#316801
19
#316831
06
#320000
0"
0!
1%
#320822
0-
#320832
0.
#323124
0$
#325267
1#
#325452
1,
#325904
17
#326159
00
#326837
11
#327234
02
#327627
03
#328036
14
#330000
1!
0%
#330832
1.
#335874
10
#336078
05
#336471
16
#337140
08
#337641
09
#340000
1"
0!
1%
#340822
1-
#340832
0.
#343964
1$
#345452
0,
#345874
0/
#346078
15
#346107
0#
#346554
12
#346947
13
#346951
01
#347356
04
#350000
1!
0%
#350832
1.
#355874
1/
#355904
07
#356300
18
#356801
19
#356831
06
#360000
0"
0!
1%
#360822
0-
#360832
0.
#363124
0$
#365267
1#
#365452
1,
#365904
17
#366159
00
#366837
11
#367234
02
#367627
03
#368036
14
#370000
1!
0%
#370832
1.
#375874
10
#376078
05
#376471
16
#377140
08
#377641
09
#380000
1"
0!
1%
#380822
1-
#380832
0.
#383964
1$
#385452
0,
#385874
0/
#386078
15
#386107
0#
#386554
12
#386947
13
#386951
01
#387356
04
#390000
1!
0%
#390832
1.
#395874
1/
#395904
07
#396300
18
#396801
19
#396831
06
#400000
0"
0!
1%
#400822
0-
#400832
0.
#403124
0$
#405267
1#
#405452
1,
#405904
17
#406159
00
#406837
11
#407234
02
#407627
03
#408036
14
#410000
1!
0%
#410832
1.
#415874
10
#416078
05
#416471
16
#417140
08
#417641
09
#420000
1"
0!
1%
#420822
1-
#420832
0.
#423964
1$
#425452
0,
#425874
0/
#426078
15
#426107
0#
#426554
12
#426947
13
#426951
01
#427356
04
#430000
1!
0%
#430832
1.
#435874
1/
#435904
07
#436300
18
#436801
19
#436831
06
#440000
0"
0!
1%
#440822
0-
#440832
0.
#443124
0$
#445267
1#
#445452
1,
#445904
17
#446159
00
#446837
11
#447234
02
#447627
03
#448036
14
#450000
1!
0%
#450832
1.
#455874
10
#456078
05
#456471
16
#457140
08
#457641
09
#460000
1"
0!
1%
#460822
1-
#460832
0.
#463964
1$
#465452
0,
#465874
0/
#466078
15
#466107
0#
#466554
12
#466947
13
#466951
01
#467356
04
#470000
1!
0%
#470832
1.
#475874
1/
#475904
07
#476300
18
#476801
19
#476831
06
#480000
0"
0!
1%
#480822
0-
#480832
0.
#483124
0$
#485267
1#
#485452
1,
#485904
17
#486159
00
#486837
11
#487234
02
#487627
03
#488036
14
#490000
1!
0%
#490832
1.
#495874
10
#496078
05
#496471
16
#497140
08
#497641
09
#500000
1"
0!
1%
#500822
1-
#500832
0.
#503964
1$
#505452
0,
#505874
0/
#506078
15
#506107
0#
#506554
12
#506947
13
#506951
01
#507356
04
#510000
1!
0%
#510832
1.
#515874
1/
#515904
07
#516300
18
#516801
19
#516831
06
#520000
0"
0!
1%
#520822
0-
#520832
0.
#523124
0$
#525267
1#
#525452
1,
#525904
17
#526159
00
#526837
11
#527234
02
#527627
03
#528036
14
#530000
1!
0%
#530832
1.
#535874
10
#536078
05
#536471
16
#537140
08
#537641
09
#540000
1"
0!
1%
#540822
1-
#540832
0.
#543964
1$
#545452
0,
#545874
0/
#546078
15
#546107
0#
#546554
12
#546947
13
#546951
01
#547356
04
#550000
1!
0%
#550832
1.
#555874
1/
#555904
07
#556300
18
#556801
19
#556831
06
#560000
0"
0!
1%
#560822
0-
#560832
0.
#563124
0$
#565267
1#
#565452
1,
#565904
17
#566159
00
#566837
11
#567234
02
#567627
03
#568036
14
#570000
1!
0%
#570832
1.
#575874
10
#576078
05
#576471
16
#577140
08
#577641
09
#580000
1"
0!
1%
#580822
1-
#580832
0.
#583964
1$
#585452
0,
#585874
0/
#586078
15
#586107
0#
#586554
12
#586947
13
#586951
01
#587356
04
#590000
1!
0%
#590832
1.
#595874
1/
#595904
07
#596300
18
#596801
19
#596831
06
#600000
0"
0!
1%
#600822
0-
#600832
0.
#603124
0$
#605267
1#
#605452
1,
#605904
17
#606159
00
#606837
11
#607234
02
#607627
03
#608036
14
#610000
1!
0%
#610832
1.
#615874
10
#616078
05
#616471
16
#617140
08
#617641
09
#620000
1"
0!
1%
#620822
1-
#620832
0.
#623964
1$
#625452
0,
#625874
0/
#626078
15
#626107
0#
#626554
12
#626947
13
#626951
01
#627356
04
#630000
1!
0%
#630832
1.
#635874
1/
#635904
07
#636300
18
#636801
19
#636831
06
#640000
0"
0!
1%
#640822
0-
#640832
0.
#643124
0$
#645267
1#
#645452
1,
#645904
17
#646159
00
#646837
11
#647234
02
#647627
03
#648036
14
#650000
1!
0%
#650832
1.
#655874
10
#656078
05
#656471
16
#657140
08
#657641
09
#660000
1"
0!
1%
#660822
1-
#660832
0.
#663964
1$
#665452
0,
#665874
0/
#666078
15
#666107
0#
#666554
12
#666947
13
#666951
01
#667356
04
#670000
1!
0%
#670832
1.
#675874
1/
#675904
07
#676300
18
#676801
19
#676831
06
#680000
0"
0!
1%
#680822
0-
#680832
0.
#683124
0$
#685267
1#
#685452
1,
#685904
17
#686159
00
#686837
11
#687234
02
#687627
03
#688036
14
#690000
1!
0%
#690832
1.
#695874
10
#696078
05
#696471
16
#697140
08
#697641
09
#700000
1"
0!
1%
#700822
1-
#700832
0.
#703964
1$
#705452
0,
#705874
0/
#706078
15
#706107
0#
#706554
12
#706947
13
#706951
01
#707356
04
#710000
1!
0%
#710832
1.
#715874
1/
#715904
07
#716300
18
#716801
19
#716831
06
#720000
0"
0!
1%
#720822
0-
#720832
0.
#723124
0$
#725267
1#
#725452
1,
#725904
17
#726159
00
#726837
11
#727234
02
#727627
03
#728036
14
#730000
1!
0%
#730832
1.
#735874
10
#736078
05
#736471
16
#737140
08
#737641
09
#740000
1"
0!
1%
#740822
1-
#740832
0.
#743964
1$
#745452
0,
#745874
0/
#746078
15
#746107
0#
#746554
12
#746947
13
#746951
01
#747356
04
#750000
1!
0%
#750832
1.
#755874
1/
#755904
07
#756300
18
#756801
19
#756831
06
#760000
0"
0!
1%
#760822
0-
#760832
0.
#763124
0$
#765267
1#
#765452
1,
#765904
17
#766159
00
#766837
11
#767234
02
#767627
03
#768036
14
#770000
1!
0%
#770832
1.
#775874
10
#776078
05
#776471
16
#777140
08
#777641
09
#780000
1"
0!
1%
#780822
1-
#780832
0.
#783964
1$
#785452
0,
#785874
0/
#786078
15
#786107
0#
#786554
12
#786947
13
#786951
01
#787356
04
#790000
1!
0%
#790832
1.
#795874
1/
#795904
07
#796300
18
#796801
19
#796831
06
#800000
0"
0!
1%
#800822
0-
#800832
0.
#803124
0$
#805267
1#
#805452
1,
#805904
17
#806159
00
#806837
11
#807234
02
#807627
03
#808036
14
#810000
1!
0%
#810832
1.
#815874
10
#816078
05
#816471
16
#817140
08
#817641
09
#820000
1"
0!
1%
#820822
1-
#820832
0.
#823964
1$
#825452
0,
#825874
0/
#826078
15
#826107
0#
#826554
12
#826947
13
#826951
01
#827356
04
#830000
1!
0%
#830832
1.
#835874
1/
#835904
07
#836300
18
#836801
19
#836831
06
#840000
0"
0!
1%
#840822
0-
#840832
0.
#843124
0$
#845267
1#
#845452
1,
#845904
17
#846159
00
#846837
11
#847234
02
#847627
03
#848036
14
#850000
1!
0%
#850832
1.
#855874
10
#856078
05
#856471
16
#857140
08
#857641
09
#860000
1"
0!
1%
#860822
1-
#860832
0.
#863964
1$
#865452
0,
#865874
0/
#866078
15
#866107
0#
#866554
12
#866947
13
#866951
01
#867356
04
#870000
1!
0%
#870832
1.
#875874
1/
#875904
07
#876300
18
#876801
19
#876831
06
#880000
0"
0!
1%
#880822
0-
#880832
0.
#883124
0$
#885267
1#
#885452
1,
#885904
17
#886159
00
#886837
11
#887234
02
#887627
03
#888036
14
#890000
1!
0%
#890832
1.
#895874
10
#896078
05
#896471
16
#897140
08
#897641
09
#900000
1"
0!
1%
#900822
1-
#900832
0.
#903964
1$
#905452
0,
#905874
0/
#906078
15
#906107
0#
#906554
12
#906947
13
#906951
01
#907356
04
#910000
1!
0%
#910832
1.
#915874
1/
#915904
07
#916300
18
#916801
19
#916831
06
#920000
0"
0!
1%
#920822
0-
#920832
0.
#923124
0$
#925267
1#
#925452
1,
#925904
17
#926159
00
#926837
11
#927234
02
#927627
03
#928036
14
#930000
1!
0%
#930832
1.
#935874
10
#936078
05
#936471
16
#937140
08
#937641
09
#940000
1"
0!
1%
#940822
1-
#940832
0.
#943964
1$
#945452
0,
#945874
0/
#946078
15
#946107
0#
#946554
12
#946947
13
#946951
01
#947356
04
#950000
1!
0%
#950832
1.
#955874
1/
#955904
07
#956300
18
#956801
19
#956831
06
#960000
0"
0!
1%
#960822
0-
#960832
0.
#963124
0$
#965267
1#
#965452
1,
#965904
17
#966159
00
#966837
11
#967234
02
#967627
03
#968036
14
#970000
1!
0%
#970832
1.
#975874
10
#976078
05
#976471
16
#977140
08
#977641
09
#980000
1"
0!
1%
#980822
1-
#980832
0.
#983964
1$
#985452
0,
#985874
0/
#986078
15
#986107
0#
#986554
12
#986947
13
#986951
01
#987356
04
#990000
1!
0%
#990832
1.
#995874
1/
#995904
07
#996300
18
#996801
19
#996831
06
