basics/seven-segment/simulation/qsim/7_seg_dec.msim.vcd
$comment
	File created using the following command:
		vcd file 7_seg_dec.msim.vcd -direction
$end
$date
	Tue Jul 27 21:28:12 2021
$end
$version
	ModelSim Version 10.1d
$end
$timescale
	1ps
$end
$scope module sev_seg_dec_vlg_vec_tst $end
$var reg 3 ! C [2:0] $end
$var wire 1 " HEX0 [0] $end
$var wire 1 # HEX0 [1] $end
$var wire 1 $ HEX0 [2] $end
$var wire 1 % HEX0 [3] $end
$var wire 1 & HEX0 [4] $end
$var wire 1 ' HEX0 [5] $end
$var wire 1 ( HEX0 [6] $end
$var wire 1 ) sampler $end
$scope module i1 $end
$var wire 1 * gnd $end
$var wire 1 + vcc $end
$var wire 1 , unknown $end
$var tri1 1 - devclrn $end
$var tri1 1 . devpor $end
$var tri1 1 / devoe $end
$var wire 1 0 HEX0~0_combout $end
$var wire 1 1 HEX0~1_combout $end
$var wire 1 2 HEX0~2_combout $end
$var wire 1 3 C~combout [2] $end
$var wire 1 4 C~combout [1] $end
$var wire 1 5 C~combout [0] $end
$upscope $end
$upscope $end
$enddefinitions $end
#0
$dumpvars
b0 !
0(
1'
1&
0%
1$
1#
0"
x)
0*
1+
x,
1-
1.
1/
10
01
02
05
04
03
$end
#10000
b1 !
15
0)
12
11
00
1"
0$
0#
1%
#20000
b11 !
b10 !
05
14
1)
02
0"
#30000
b11 !
15
0)
12
01
1"
1$
1#
#40000
b111 !
b101 !
b100 !
05
04
13
1)
02
11
10
0'
0&
0"
0$
0#
0%
#50000
b101 !
15
0)
#60000
b111 !
b110 !
05
14
1)
#70000
b111 !
15
0)
#80000
b11 !
b1 !
b0 !
05
04
03
1)
01
1'
1&
1$
1#
#90000
b1 !
15
0)
12
11
00
1"
0$
0#
1%
#100000
b11 !
b10 !
05
14
1)
02
0"
#110000
b11 !
15
0)
12
01
1"
1$
1#
#120000
b111 !
b101 !
b100 !
05
04
13
1)
02
11
10
0'
0&
0"
0$
0#
0%
#130000
b101 !
15
0)
#140000
b111 !
b110 !
05
14
1)
#150000
b111 !
15
0)
#160000
b11 !
b1 !
b0 !
05
04
03
1)
01
1'
1&
1$
1#
#170000
b1 !
15
0)
12
11
00
1"
0$
0#
1%
#180000
b11 !
b10 !
05
14
1)
02
0"
#190000
b11 !
15
0)
12
01
1"
1$
1#
#200000
b111 !
b101 !
b100 !
05
04
13
1)
02
11
10
0'
0&
0"
0$
0#
0%
#210000
b101 !
15
0)
#220000
b111 !
b110 !
05
14
1)
#230000
b111 !
15
0)
#240000
b11 !
b1 !
b0 !
05
04
03
1)
01
1'
1&
1$
1#
#250000
b1 !
15
0)
12
11
00
1"
0$
0#
1%
#260000
b11 !
b10 !
05
14
1)
02
0"
#270000
b11 !
15
0)
12
01
1"
1$
1#
#280000
b111 !
b101 !
b100 !
05
04
13
1)
02
11
10
0'
0&
0"
0$
0#
0%
#290000
b101 !
15
0)
#300000
b111 !
b110 !
05
14
1)
#310000
b111 !
15
0)
#320000
b11 !
b1 !
b0 !
05
04
03
1)
01
1'
1&
1$
1#
#330000
b1 !
15
0)
12
11
00
1"
0$
0#
1%
#340000
b11 !
b10 !
05
14
1)
02
0"
#350000
b11 !
15
0)
12
01
1"
1$
1#
#360000
b111 !
b101 !
b100 !
05
04
13
1)
02
11
10
0'
0&
0"
0$
0#
0%
#370000
b101 !
15
0)
#380000
b111 !
b110 !
05
14
1)
#390000
b111 !
15
0)
#400000
b11 !
b1 !
b0 !
05
04
03
1)
01
1'
1&
1$
1#
#410000
b1 !
15
0)
12
11
00
1"
0$
0#
1%
#420000
b11 !
b10 !
05
14
1)
02
0"
#430000
b11 !
15
0)
12
01
1"
1$
1#
#440000
b111 !
b101 !
b100 !
05
04
13
1)
02
11
10
0'
0&
0"
0$
0#
0%
#450000
b101 !
15
0)
#460000
b111 !
b110 !
05
14
1)
#470000
b111 !
15
0)
#480000
b11 !
b1 !
b0 !
05
04
03
1)
01
1'
1&
1$
1#
#490000
b1 !
15
0)
12
11
00
1"
0$
0#
1%
#500000
b11 !
b10 !
05
14
1)
02
0"
#510000
b11 !
15
0)
12
01
1"
1$
1#
#520000
b111 !
b101 !
b100 !
05
04
13
1)
02
11
10
0'
0&
0"
0$
0#
0%
#530000
b101 !
15
0)
#540000
b111 !
b110 !
05
14
1)
#550000
b111 !
15
0)
#560000
b11 !
b1 !
b0 !
05
04
03
1)
01
1'
1&
1$
1#
#570000
b1 !
15
0)
12
11
00
1"
0$
0#
1%
#580000
b11 !
b10 !
05
14
1)
02
0"
#590000
b11 !
15
0)
12
01
1"
1$
1#
#600000
b111 !
b101 !
b100 !
05
04
13
1)
02
11
10
0'
0&
0"
0$
0#
0%
#610000
b101 !
15
0)
#620000
b111 !
b110 !
05
14
1)
#630000
b111 !
15
0)
#640000
b11 !
b1 !
b0 !
05
04
03
1)
01
1'
1&
1$
1#
#650000
b1 !
15
0)
12
11
00
1"
0$
0#
1%
#660000
b11 !
b10 !
05
14
1)
02
0"
#670000
b11 !
15
0)
12
01
1"
1$
1#
#680000
b111 !
b101 !
b100 !
05
04
13
1)
02
11
10
0'
0&
0"
0$
0#
0%
#690000
b101 !
15
0)
#700000
b111 !
b110 !
05
14
1)
#710000
b111 !
15
0)
#720000
b11 !
b1 !
b0 !
05
04
03
1)
01
1'
1&
1$
1#
#730000
b1 !
15
0)
12
11
00
1"
0$
0#
1%
#740000
b11 !
b10 !
05
14
1)
02
0"
#750000
b11 !
15
0)
12
01
1"
1$
1#
#760000
b111 !
b101 !
b100 !
05
04
13
1)
02
11
10
0'
0&
0"
0$
0#
0%
#770000
b101 !
15
0)
#780000
b111 !
b110 !
05
14
1)
#790000
b111 !
15
0)
#800000
b11 !
b1 !
b0 !
05
04
03
1)
01
1'
1&
1$
1#
#810000
b1 !
15
0)
12
11
00
1"
0$
0#
1%
#820000
b11 !
b10 !
05
14
1)
02
0"
#830000
b11 !
15
0)
12
01
1"
1$
1#
#840000
b111 !
b101 !
b100 !
05
04
13
1)
02
11
10
0'
0&
0"
0$
0#
0%
#850000
b101 !
15
0)
#860000
b111 !
b110 !
05
14
1)
#870000
b111 !
15
0)
#880000
b11 !
b1 !
b0 !
05
04
03
1)
01
1'
1&
1$
1#
#890000
b1 !
15
0)
12
11
00
1"
0$
0#
1%
#900000
b11 !
b10 !
05
14
1)
02
0"
#910000
b11 !
15
0)
12
01
1"
1$
1#
#920000
b111 !
b101 !
b100 !
05
04
13
1)
02
11
10
0'
0&
0"
0$
0#
0%
#930000
b101 !
15
0)
#940000
b111 !
b110 !
05
14
1)
#950000
b111 !
15
0)
#960000
b11 !
b1 !
b0 !
05
04
03
1)
01
1'
1&
1$
1#
#970000
b1 !
15
0)
12
11
00
1"
0$
0#
1%
#980000
b11 !
b10 !
05
14
1)
02
0"
#990000
b11 !
15
0)
12
01
1"
1$
1#
